{
  "images" : [
    {
      "idiom" : "universal",
      "filename" : "Logo_ES.png",
      "scale" : "1x"
    },
    {
      "idiom" : "universal",
      "filename" : "Vector Smart Object-2_ES.png",
      "scale" : "2x"
    },
    {
      "idiom" : "universal",
      "filename" : "Vector Smart Object-2_ES-1.png",
      "scale" : "3x"
    }
  ],
  "info" : {
    "version" : 1,
    "author" : "xcode"
  }
}